{"results":[{"visibility":"public","status":"upcoming","maybe_rsvp_count":0,"venue":{"id":6858902,"lon":-0.084817,"name":"Google Campus","address_1":"4-5 BONHILL STREET LONDON EC2A 4BX","lat":51.522724,"country":"gb","city":"London"},"id":"xqmpqyqpbcb","utc_offset":0,"time":1351796400000,"waitlist_count":0,"yes_rsvp_count":78,"created":1338818505000,"updated":1349707154000,"event_url":"http:\/\/www.meetup.com\/phplondon\/events\/67653862\/","how_to_find_us":"Downstairs, level -1, in the cafe. Capacity is limited to the first 120 people to arrive, regardless of RSVP.","description":"&lt;p&gt;PHP London is a non-profit group to promote knowledge sharing and best practice amongst PHP developers and web development and business professionals in London. The main product right now is a regular PHP meetup, basically a monthly PHP PubCon. In order to attend all you need is an interest in PHP.&lt;\/p&gt;\n&lt;p&gt;Agenda:&lt;\/p&gt;\n&lt;ul&gt;\n&lt;li&gt;\n&lt;p&gt;&lt;span style=\"color : #000000 ; font-size : medium\"&gt;7:00-8:00 - informal drinks, snacks and chat&lt;\/span&gt;&lt;\/p&gt;\n&lt;\/li&gt;\n&lt;li&gt;\n&lt;p&gt;&lt;span style=\"color : #000000 ; font-size : medium\"&gt;8:00-8:05 - welcome by executive committee &amp;amp; any group announcements&lt;\/span&gt;&lt;\/p&gt;\n&lt;\/li&gt;\n&lt;li&gt;\n&lt;p&gt;&lt;span style=\"color : #000000 ; font-size : medium\"&gt;8:05-9:00 - talk(s):&lt;\/span&gt;&lt;\/p&gt;\n&lt;ul&gt;\n&lt;li&gt;\n&lt;p&gt;&lt;span style=\"color : #222222 ; font-size : medium\"&gt;&lt;strong&gt;Distributed Coordination with Zookeeper &lt;br \/&gt;\n\n&lt;\/strong&gt; &lt;span style=\"color : #999999\"&gt;Ian Barber &lt;br \/&gt;\n\n &lt;br \/&gt;\n\n&lt;\/span&gt;&lt;\/span&gt;Splitting work across many machines is a vital part of scaling out for big data and big processing, but can cause big problems. Zookeeper provides a straightforward service for managing distributed locking, presence, and coordination, and is available via a PHP extension. In this talk we'll look at what Zookeeper is, when and why it's the right choice, and how to use it from PHP. &lt;br \/&gt;\n\n &lt;br \/&gt;\n\nIan Barber works as a Senior Developer Advocate for Google+, in London. He is the author of the PHP Support Vector Machine extension and a maintainer of the brokerless messaging library ZeroMQ.&lt;\/p&gt;\n&lt;\/li&gt;\n&lt;\/ul&gt;\n&lt;\/li&gt;\n&lt;\/ul&gt;\n&lt;p&gt;If you are interested in giving a talk, or want to request one, please look at our talks page: &lt;a href=\"http:\/\/www.phplondon.org\/wiki\/Talks\"&gt;http:\/\/www.phplondon.org\/wiki\/Talks&lt;\/a&gt;&lt;\/p&gt;\n&lt;ul&gt;\n&lt;li&gt;\n&lt;p&gt;&lt;span style=\"color : #000000 ; font-size : medium\"&gt;9:00 onwards - more drinks, snack and chat&lt;\/span&gt;&lt;\/p&gt;\n&lt;\/li&gt;\n&lt;\/ul&gt;\n\n","name":"PHP London November 2012","group":{"id":218194,"group_lat":51.52000045776367,"name":"PHP London","group_lon":-0.10000000149011612,"join_mode":"open","urlname":"phplondon","who":"PHP users"}}],"meta":{"lon":"","count":1,"signed_url":"http:\/\/api.meetup.com\/2\/events?status=upcoming&amp;order=time&amp;group_urlname=phplondon&amp;desc=false&amp;offset=0&amp;format=json&amp;page=1&amp;fields=&amp;sig_id=5803348&amp;sig=86d99c3921223d276583ec4e5fa9a12decd2daa0","link":"https:\/\/api.meetup.com\/2\/events","next":"https:\/\/api.meetup.com\/2\/events?key=5b29476d622b3ba464c656e2d2c567e&amp;status=upcoming&amp;order=time&amp;group_urlname=phplondon&amp;desc=false&amp;offset=1&amp;format=json&amp;page=1&amp;fields=&amp;sign=true","total_count":16,"url":"https:\/\/api.meetup.com\/2\/events?key=5b29476d622b3ba464c656e2d2c567e&amp;status=upcoming&amp;order=time&amp;group_urlname=phplondon&amp;desc=false&amp;offset=0&amp;format=json&amp;page=1&amp;fields=&amp;sign=true","id":"","title":"Meetup Events v2","updated":1350390842000,"description":"Access Meetup events using a group, member, or event id. Events in private groups are available only to authenticated members of those groups. To search events by topic or location, see [Open Events](\/meetup_api\/docs\/2\/open_events).","method":"Events","lat":""}}