{"results":[{"rsvp_limit":100,"status":"upcoming","visibility":"public","maybe_rsvp_count":0,"venue":{"id":6858902,"lon":-0.084817,"name":"Google Campus","address_1":"4-5 BONHILL STREET LONDON EC2A 4BX","lat":51.522724,"country":"gb","city":"London"},"id":"xqmpqyqlbdb","utc_offset":3600000,"time":1343930400000,"waitlist_count":0,"updated":1341575032000,"created":1335998803000,"yes_rsvp_count":15,"event_url":"http:\/\/www.meetup.com\/phplondon\/events\/63156512\/","description":"<p>PHP London is a non-profit group to promote knowledge sharing and best practice amongst PHP developers and web development and business professionals in London. The main product right now is a regular PHP meetup, basically a monthly PHP PubCon. In order to attend all you need is an interest in PHP.<\/p>\n<p>Agenda:<\/p>\n<ul>\n<li>\n<p><span style=\"color : #000000 ; font-size : medium\">7:00-8:00 - informal drinks, snacks and chat<\/span><\/p>\n<\/li>\n<li>\n<p><span style=\"color : #000000 ; font-size : medium\">8:00-8:05 - welcome by executive committee &amp; any group announcements<\/span><\/p>\n<\/li>\n<li>\n<p><span style=\"color : #000000 ; font-size : medium\">8:05-9:00 - talk(s):<\/span><\/p>\n<ul>\n<li>\n<p><span>Unique ID Generation in Distributed Systems by Dave Gardner<\/span><\/p>\n<\/li>\n<\/ul>\n<\/li>\n<\/ul>\n<p>If you are interested in giving a talk, or want to request one, please look at our talks page: <a href=\"http:\/\/www.phplondon.org\/wiki\/Talks\">http:\/\/www.phplondon.org\/wiki\/Talks<\/a><\/p>\n<ul>\n<li>\n<p><span style=\"color : #000000 ; font-size : medium\">9:00 onwards - more drinks, snack and chat<\/span><\/p>\n<\/li>\n<\/ul>\n<p> <\/p>\n<p>If you're coming, feel free to mark yourself down on the meeting page on our wiki. Everyone who does so, links to their wiki profile page, and actually attends will be entered in a random draw for a prize of £10 of drinks\/food from the venue:<\/p>\n<p><a href=\"http:\/\/www.phplondon.org\/wiki\/August_2nd_2012\">http:\/\/www.phplondon.org\/wiki\/August_2nd_2012<\/a><\/p>\n\n","how_to_find_us":"Upstairs on the second floor in the Doggett's bar","name":"PHP London August 2012","group":{"id":218194,"group_lat":51.52000045776367,"name":"PHP London","group_lon":-0.10000000149011612,"join_mode":"open","urlname":"phplondon","who":"PHP users"}}],"meta":{"lon":"","count":1,"link":"http:\/\/api.meetup.com\/2\/events","next":"http:\/\/api.meetup.com\/2\/events?_=1341685261298&status=upcoming&sig_id=5803348&order=time&group_urlname=phplondon&desc=false&sig=86d99c3921223d276583ec4e5fa9a12decd2daa0&offset=1&format=json&page=1&fields=","total_count":18,"url":"http:\/\/api.meetup.com\/2\/events?_=1341685261298&status=upcoming&sig_id=5803348&order=time&group_urlname=phplondon&desc=false&sig=86d99c3921223d276583ec4e5fa9a12decd2daa0&offset=0&format=json&page=1&fields=","id":"","title":"Meetup Events v2","updated":1341575032000,"description":"Access Meetup events using a group, member, or event id. Events in private groups are available only to authenticated members of those groups. To search events by topic or location, see [Open Events](\/meetup_api\/docs\/2\/open_events).","method":"Events","lat":""}}